{
	"front-page": {
		"name": "Front Page",
		"template": "front-page",
		"regions": {
			"banner": "Banner",
			"left-column": "Left Column",
			"middle-column": "Middle Column",
			"right-column": "Right Column",
			"content-footer": "Content Footer"
		}
	},
	"full-width": {
		"name": "Full Width",
		"template": "full-width",
		"regions": {
			"banner": "Banner",
			"content": "Content"
		}
	},
	"submenu-sidebar": {
		"name": "Submenu With Sidebar",
		"template": "submenu-with-sidebar",
		"regions": {
			"banner": "Banner",
			"content": "Content",
			"sidebar": "Sidebar"
		}
	},
	"two-sidebars": {
		"name": "Two Sidebars",
		"template": "two-sidebars",
		"regions": {
			"banner": "Banner",
			"content": "Content",
			"left-sidebar": "Left Sidebar",
			"right-sidebar": "Right Sidebar"
		}
	},
	"left-sidebar": {
		"name": "Left Sidebar",
		"template": "left-sidebar",
		"regions": {
			"banner": "Banner",
			"content": "Content",
			"left-sidebar": "Left Sidebar"
		}
	},
	"right-sidebar": {
		"name": "Right Sidebar",
		"template": "right-sidebar",
		"regions": {
			"banner": "Banner",
			"content": "Content",
			"right-sidebar": "Right Sidebar"
		}
	},
	"three-column" : {
		"name": "Three Column",
		"template" : "three-column",
		"regions" : {
			"col1": "Column 1",
			"col2": "Column 2",
			"col3": "Column 3"
		}
	},
	"four-column": {
		"name": "Four Column",
		"template": "four-column",
		"regions": {
			"col1": "Column 1",
			"col2": "Column 2",
			"col3": "Column 3",
			"col4": "Column 4"
		}
	},
	"appco-worldwide": {
		"name": "Appco  Worldwide",
		"template": "appco-worldwide",
		"regions": {
			"banner": "Banner",
			"content": "Content",
			"right-sidebar": "Right Sidebar"
		}
	}
}